{"level":"error","message":"404 - Not Found - /articles/create? - GET - ::1","timestamp":"2022-08-04 23:46:23:4623"}
{"level":"error","message":"404 - Not Found - /articles/bootstrap.min.css.map - GET - ::1","timestamp":"2022-08-04 23:46:23:4623"}
{"level":"error","message":"404 - Not Found - /articles/undefined - GET - ::1","timestamp":"2022-08-05 01:09:01:91"}
{"level":"error","message":"404 - Not Found - /articles/undefined - GET - ::1","timestamp":"2022-08-05 01:15:59:1559"}
{"level":"error","message":"404 - Not Found - /articles/undefined - GET - ::1","timestamp":"2022-08-05 01:15:59:1559"}
{"level":"error","message":"404 - Not Found - /articles/undefined - GET - ::1","timestamp":"2022-08-05 01:19:10:1910"}
{"level":"error","message":"404 - Not Found - /articles/undefined - GET - ::1","timestamp":"2022-08-05 01:20:18:2018"}
{"level":"error","message":"404 - Not Found - /articles/undefined - GET - ::1","timestamp":"2022-08-05 01:21:44:2144"}
{"level":"error","message":"404 - Not Found - /articles/undefined - GET - ::1","timestamp":"2022-08-05 01:22:15:2215"}
{"level":"error","message":"404 - Not Found - /articles/undefined - GET - ::1","timestamp":"2022-08-05 01:32:29:3229"}
{"level":"error","message":"404 - Not Found - /articles/undefined - GET - ::1","timestamp":"2022-08-05 01:34:21:3421"}
{"level":"error","message":"404 - Not Found - /articles/undefined - GET - ::1","timestamp":"2022-08-05 03:53:42:5342"}
{"level":"error","message":"404 - Not Found - /articles/undefined - GET - ::1","timestamp":"2022-08-05 03:57:05:575"}
{"level":"error","message":"404 - Not Found - /articles/undefined - GET - ::1","timestamp":"2022-08-05 03:57:35:5735"}
{"level":"error","message":"404 - Not Found - /articles/create? - GET - ::1","timestamp":"2022-08-05 03:58:03:583"}
{"level":"error","message":"404 - Not Found - /favicon.ico - GET - ::1","timestamp":"2022-08-05 03:58:04:584"}
{"level":"error","message":"404 - Not Found - /articles/create - GET - ::1","timestamp":"2022-08-05 03:58:12:5812"}
{"level":"error","message":"404 - Not Found - /articles/create - GET - ::1","timestamp":"2022-08-05 03:58:19:5819"}
{"level":"error","message":"404 - Not Found - /favicon.ico - GET - ::1","timestamp":"2022-08-05 03:58:19:5819"}
